%YAML 1.1
%TAG !u! tag:unity3d.com,2011:
--- !u!114 &11400000
MonoBehaviour:
  m_ObjectHideFlags: 0
  m_PrefabParentObject: {fileID: 0}
  m_PrefabInternal: {fileID: 0}
  m_GameObject: {fileID: 0}
  m_Enabled: 1
  m_EditorHideFlags: 0
  m_Script: {fileID: 11500000, guid: 7c1911b6d77d5f6448338ad9c9973386, type: 3}
  m_Name: Hair
  m_EditorClassIdentifier: 
  meshes:
  - {fileID: 4300002, guid: 0a1df449aac85244d96644b359337168, type: 3}
  - {fileID: 4300004, guid: 0a1df449aac85244d96644b359337168, type: 3}
  - {fileID: 4300006, guid: 0a1df449aac85244d96644b359337168, type: 3}
  - {fileID: 4300008, guid: 0a1df449aac85244d96644b359337168, type: 3}
  - {fileID: 4300010, guid: 0a1df449aac85244d96644b359337168, type: 3}
  - {fileID: 4300012, guid: 0a1df449aac85244d96644b359337168, type: 3}
  - {fileID: 4300014, guid: 0a1df449aac85244d96644b359337168, type: 3}
  - {fileID: 4300016, guid: 0a1df449aac85244d96644b359337168, type: 3}
  - {fileID: 4300018, guid: 0a1df449aac85244d96644b359337168, type: 3}
  - {fileID: 4300020, guid: 0a1df449aac85244d96644b359337168, type: 3}
  colors:
  - r: 0.08823532
    g: 0.08823532
    b: 0.08823532
    a: 1
  - r: 0.4044118
    g: 0.30568773
    b: 0.15760165
    a: 1
  - r: 0.83823526
    g: 0.7269523
    b: 0.36364618
    a: 1
