%YAML 1.1
%TAG !u! tag:unity3d.com,2011:
--- !u!114 &11400000
MonoBehaviour:
  m_ObjectHideFlags: 0
  m_CorrespondingSourceObject: {fileID: 0}
  m_PrefabInternal: {fileID: 0}
  m_GameObject: {fileID: 0}
  m_Enabled: 1
  m_EditorHideFlags: 0
  m_Script: {fileID: 11500000, guid: 499378acfe812ca4f90bd83d4e58592f, type: 3}
  m_Name: 04 - Rocky
  m_EditorClassIdentifier: 
  fullName: ROCKY BORDERS
  jerseyName: ROCKY
  jerseyNumber: 13
  height: 5'8"
  weight: 170lbs.
  bio: 
  playerPortrait: {fileID: 2800000, guid: bed383b85ec989046a42d498571d2ca2, type: 3}
  hairMesh: {fileID: 4300002, guid: 370f2637e136a3148b374f84adbb2843, type: 3}
  hairColor: {r: 0.28620693, g: 0.1791888, b: 0.09470082, a: 1}
  fieldPosition: 3
  isManly: 0
  skinMat: {fileID: 2100000, guid: 70c6c02ab9429264ab51be4dfabd0910, type: 2}
  runSpeedDefense: 6
  throwSpeed: 30
  fumbleChance: 0.08
  chestHeight: 1.5
  armLength: 1
  pitchSpeed: 40
  pitchStrikeChance: 1
  runSpeedOffense: 7
  missSwing: 0.5
  swingAtBalls: 0
  swingAtStrikes: 1
  homeRunChance: 0
  foulChance: 0
  powerRange: {x: 20, y: 35}
