%YAML 1.1
%TAG !u! tag:unity3d.com,2011:
--- !u!21 &2100000
Material:
  serializedVersion: 6
  m_ObjectHideFlags: 0
  m_CorrespondingSourceObject: {fileID: 0}
  m_PrefabInternal: {fileID: 0}
  m_Name: SteamVRControllerModel 1
  m_Shader: {fileID: 4800000, guid: dd496457a855aa341b0d7b7b475a7a3a, type: 3}
  m_ShaderKeywords: OUTLINES _EMISSION
  m_LightmapFlags: 1
  m_EnableInstancingVariants: 0
  m_DoubleSidedGI: 0
  m_CustomRenderQueue: -1
  stringTagMap:
    OriginalShader: Standard
  disabledShaderPasses: []
  m_SavedProperties:
    serializedVersion: 3
    m_TexEnvs:
    - _BumpMap:
        m_Texture: {fileID: 0}
        m_Scale: {x: 1, y: 1}
        m_Offset: {x: 0, y: 0}
    - _DetailAlbedoMap:
        m_Texture: {fileID: 0}
        m_Scale: {x: 1, y: 1}
        m_Offset: {x: 0, y: 0}
    - _DetailMask:
        m_Texture: {fileID: 0}
        m_Scale: {x: 1, y: 1}
        m_Offset: {x: 0, y: 0}
    - _DetailNormalMap:
        m_Texture: {fileID: 0}
        m_Scale: {x: 1, y: 1}
        m_Offset: {x: 0, y: 0}
    - _EmissionMap:
        m_Texture: {fileID: 0}
        m_Scale: {x: 1, y: 1}
        m_Offset: {x: 0, y: 0}
    - _MainTex:
        m_Texture: {fileID: 0}
        m_Scale: {x: 1, y: 1}
        m_Offset: {x: 0, y: 0}
    - _MetallicGlossMap:
        m_Texture: {fileID: 0}
        m_Scale: {x: 1, y: 1}
        m_Offset: {x: 0, y: 0}
    - _OcclusionMap:
        m_Texture: {fileID: 0}
        m_Scale: {x: 1, y: 1}
        m_Offset: {x: 0, y: 0}
    - _ParallaxMap:
        m_Texture: {fileID: 0}
        m_Scale: {x: 1, y: 1}
        m_Offset: {x: 0, y: 0}
    - _Ramp:
        m_Texture: {fileID: 2800000, guid: abc83c21d57d4a74cabe12065fa1a8b2, type: 3}
        m_Scale: {x: 1, y: 1}
        m_Offset: {x: 0, y: 0}
    - _SpecGlossMap:
        m_Texture: {fileID: 0}
        m_Scale: {x: 1, y: 1}
        m_Offset: {x: 0, y: 0}
    - g_tOverrideLightmap:
        m_Texture: {fileID: 0}
        m_Scale: {x: 1, y: 1}
        m_Offset: {x: 0, y: 0}
    m_Floats:
    - _BumpScale: 1
    - _Cutoff: 0.5
    - _DetailNormalMapScale: 1
    - _DstBlend: 0
    - _DstBlendOutline: 10
    - _GlossMapScale: 1
    - _Glossiness: 0.5
    - _GlossyReflections: 1
    - _Metallic: 0
    - _Mode: 0
    - _OcclusionStrength: 1
    - _OcclusionStrengthDirectDiffuse: 1
    - _OcclusionStrengthDirectSpecular: 1
    - _OcclusionStrengthIndirectDiffuse: 1
    - _OcclusionStrengthIndirectSpecular: 1
    - _Offset1: 0
    - _Offset2: 0
    - _Outline: 0.2
    - _Parallax: 0.02
    - _RampSmooth: 0.1
    - _RampThreshold: 0.5
    - _SmoothnessTextureChannel: 0
    - _SpecularHighlights: 1
    - _SpecularMode: 2
    - _SrcBlend: 1
    - _SrcBlendOutline: 5
    - _TexLod: 5
    - _UVSec: 0
    - _ZSmooth: -0.5
    - _ZWrite: 1
    - g_bReceiveShadows: 1
    - g_bUnlit: 0
    - g_bWorldAlignedTexture: 0
    - g_flCubeMapScalar: 1
    - g_flReflectanceBias: 0
    - g_flReflectanceMax: 1
    - g_flReflectanceMin: 0
    - g_flReflectanceScale: 1
    m_Colors:
    - _Color: {r: 0.2735849, g: 0.2735849, b: 0.2735849, a: 1}
    - _EmissionColor: {r: 0, g: 0, b: 0, a: 1}
    - _HColor: {r: 0.990566, g: 0.990566, b: 0.990566, a: 1}
    - _OutlineColor: {r: 0.19999996, g: 0.19999996, b: 0.19999996, a: 1}
    - _SColor: {r: 0, g: 0, b: 0, a: 1}
    - _SpecColor: {r: 0.19999996, g: 0.19999996, b: 0.19999996, a: 1}
    - g_vWorldAlignedNormalTangentU: {r: -1, g: 0, b: 0, a: 0}
    - g_vWorldAlignedNormalTangentV: {r: 0, g: 0, b: 1, a: 0}
    - g_vWorldAlignedTextureNormal: {r: 0, g: 1, b: 0, a: 0}
    - g_vWorldAlignedTexturePosition: {r: 0, g: 0, b: 0, a: 0}
    - g_vWorldAlignedTextureSize: {r: 1, g: 1, b: 1, a: 0}
