%YAML 1.1
%TAG !u! tag:unity3d.com,2011:
--- !u!114 &11400000
MonoBehaviour:
  m_ObjectHideFlags: 0
  m_PrefabParentObject: {fileID: 0}
  m_PrefabInternal: {fileID: 0}
  m_GameObject: {fileID: 0}
  m_Enabled: 1
  m_EditorHideFlags: 0
  m_Script: {fileID: 11500000, guid: 245c1facd87e8e64f9ad2836e77e6cb8, type: 3}
  m_Name: CMYK_Palette
  m_EditorClassIdentifier: 
  paletteName: CMYK
  color_1: {r: 0, g: 1, b: 1, a: 1}
  color_2: {r: 1, g: 0, b: 1, a: 1}
  color_3: {r: 1, g: 1, b: 0, a: 1}
  color_4: {r: 0, g: 1, b: 0.102041245, a: 1}
  color_5: {r: 0.5019608, g: 0.5019608, b: 0.5019608, a: 1}
  color_6: {r: 0, g: 0, b: 0, a: 1}
