%YAML 1.1
%TAG !u! tag:unity3d.com,2011:
--- !u!114 &11400000
MonoBehaviour:
  m_ObjectHideFlags: 0
  m_PrefabParentObject: {fileID: 0}
  m_PrefabInternal: {fileID: 0}
  m_GameObject: {fileID: 0}
  m_Enabled: 1
  m_EditorHideFlags: 0
  m_Script: {fileID: 11500000, guid: 499378acfe812ca4f90bd83d4e58592f, type: 3}
  m_Name: DefaultInfo
  m_EditorClassIdentifier: 
  jerseyName: 
  jerseyNumber: 00
  runSpeed: 6
  throwSpeed: 40
  fumbleChance: 0
  maxCatchAltitude: 2.5
  chestHeight: 1.5
  pitchStrikeChance: 1
  swingAtBalls: 0
  swingAtStrikes: 1
  homeRunChance: 0
  foulChance: 0
  powerRange: {x: 20, y: 30}
