%YAML 1.1
%TAG !u! tag:unity3d.com,2011:
--- !u!74 &7400000
AnimationClip:
  m_ObjectHideFlags: 0
  m_PrefabParentObject: {fileID: 0}
  m_PrefabInternal: {fileID: 0}
  m_Name: ship3
  serializedVersion: 6
  m_Legacy: 0
  m_Compressed: 0
  m_UseHighQualityCurve: 1
  m_RotationCurves: []
  m_CompressedRotationCurves: []
  m_EulerCurves: []
  m_PositionCurves:
  - curve:
      serializedVersion: 2
      m_Curve:
      - time: 0
        value: {x: -239.4, y: -9.9, z: 61.1}
        inSlope: {x: 0, y: -0.6315789, z: 0}
        outSlope: {x: 0, y: -0.6315789, z: 0}
        tangentMode: 0
      - time: 3.1666667
        value: {x: -239.4, y: -11.9, z: 61.1}
        inSlope: {x: 0, y: 0.03924015, z: 0}
        outSlope: {x: 0, y: 0.03924015, z: 0}
        tangentMode: 0
      - time: 5.983333
        value: {x: -239.4, y: -9.9, z: 61.1}
        inSlope: {x: 0, y: -0.3005995, z: 0}
        outSlope: {x: 0, y: -0.3005995, z: 0}
        tangentMode: 0
      - time: 8.5
        value: {x: -239.4, y: -13.2, z: 61.1}
        inSlope: {x: 0, y: 0.008800387, z: 0}
        outSlope: {x: 0, y: 0.008800387, z: 0}
        tangentMode: 0
      - time: 10.983334
        value: {x: -239.4, y: -9.9, z: 61.1}
        inSlope: {x: 0, y: 1.328859, z: 0}
        outSlope: {x: 0, y: 1.328859, z: 0}
        tangentMode: 0
      m_PreInfinity: 2
      m_PostInfinity: 2
      m_RotationOrder: 4
    path: 
  m_ScaleCurves: []
  m_FloatCurves: []
  m_PPtrCurves: []
  m_SampleRate: 60
  m_WrapMode: 0
  m_Bounds:
    m_Center: {x: 0, y: 0, z: 0}
    m_Extent: {x: 0, y: 0, z: 0}
  m_ClipBindingConstant:
    genericBindings:
    - path: 0
      attribute: 1
      script: {fileID: 0}
      classID: 4
      customType: 0
      isPPtrCurve: 0
    pptrCurveMapping: []
  m_AnimationClipSettings:
    serializedVersion: 2
    m_AdditiveReferencePoseClip: {fileID: 0}
    m_AdditiveReferencePoseTime: 0
    m_StartTime: 0
    m_StopTime: 10.983334
    m_OrientationOffsetY: 0
    m_Level: 0
    m_CycleOffset: 0
    m_HasAdditiveReferencePose: 0
    m_LoopTime: 1
    m_LoopBlend: 0
    m_LoopBlendOrientation: 0
    m_LoopBlendPositionY: 0
    m_LoopBlendPositionXZ: 0
    m_KeepOriginalOrientation: 0
    m_KeepOriginalPositionY: 1
    m_KeepOriginalPositionXZ: 0
    m_HeightFromFeet: 0
    m_Mirror: 0
  m_EditorCurves:
  - curve:
      serializedVersion: 2
      m_Curve:
      - time: 0
        value: -239.4
        inSlope: 0
        outSlope: 0
        tangentMode: 10
      - time: 3.1666667
        value: -239.4
        inSlope: 0
        outSlope: 0
        tangentMode: 10
      - time: 5.983333
        value: -239.4
        inSlope: 0
        outSlope: 0
        tangentMode: 10
      - time: 8.5
        value: -239.4
        inSlope: 0
        outSlope: 0
        tangentMode: 10
      - time: 10.983334
        value: -239.4
        inSlope: 0
        outSlope: 0
        tangentMode: 10
      m_PreInfinity: 2
      m_PostInfinity: 2
      m_RotationOrder: 4
    attribute: m_LocalPosition.x
    path: 
    classID: 4
    script: {fileID: 0}
  - curve:
      serializedVersion: 2
      m_Curve:
      - time: 0
        value: -9.9
        inSlope: -0.6315789
        outSlope: -0.6315789
        tangentMode: 10
      - time: 3.1666667
        value: -11.9
        inSlope: 0.03924015
        outSlope: 0.03924015
        tangentMode: 10
      - time: 5.983333
        value: -9.9
        inSlope: -0.3005995
        outSlope: -0.3005995
        tangentMode: 10
      - time: 8.5
        value: -13.2
        inSlope: 0.008800387
        outSlope: 0.008800387
        tangentMode: 10
      - time: 10.983334
        value: -9.9
        inSlope: 1.328859
        outSlope: 1.328859
        tangentMode: 10
      m_PreInfinity: 2
      m_PostInfinity: 2
      m_RotationOrder: 4
    attribute: m_LocalPosition.y
    path: 
    classID: 4
    script: {fileID: 0}
  - curve:
      serializedVersion: 2
      m_Curve:
      - time: 0
        value: 61.1
        inSlope: 0
        outSlope: 0
        tangentMode: 10
      - time: 3.1666667
        value: 61.1
        inSlope: 0
        outSlope: 0
        tangentMode: 10
      - time: 5.983333
        value: 61.1
        inSlope: 0
        outSlope: 0
        tangentMode: 10
      - time: 8.5
        value: 61.1
        inSlope: 0
        outSlope: 0
        tangentMode: 10
      - time: 10.983334
        value: 61.1
        inSlope: 0
        outSlope: 0
        tangentMode: 10
      m_PreInfinity: 2
      m_PostInfinity: 2
      m_RotationOrder: 4
    attribute: m_LocalPosition.z
    path: 
    classID: 4
    script: {fileID: 0}
  m_EulerEditorCurves: []
  m_HasGenericRootTransform: 1
  m_HasMotionFloatCurves: 0
  m_GenerateMotionCurves: 0
  m_Events: []
